Data from the Borderlands
…
Applying these elements to my plot will help it fit the Borderlands aesthetic.

R

library(tidyverse)
library(glue)
library(lubridate)

I’ll be using Steam player data for my plot. The data contains statistics for the average and peak number of players playing a variety of games each month from July 2012 to February 2021. You can download this data with the Data Source code in the appendix.

# Load the weekly data
games <- read_csv(here("data", "2021-03-16_games.csv"))
games

#> # A tibble: 83,631 x 7
#>    gamename            year month     avg    gain   peak avg_peak_perc
#>    <chr>              <dbl> <chr>   <dbl>   <dbl>  <dbl> <chr>        
#>  1 Counter-Strike: G…  2021 Febru… 7.41e5  -2196. 1.12e6 65.9567%     
#>  2 Dota 2              2021 Febru… 4.05e5 -27840. 6.52e5 62.1275%     
#>  3 PLAYERUNKNOWN'S B…  2021 Febru… 1.99e5  -2290. 4.47e5 44.4707%     
#>  4 Apex Legends        2021 Febru… 1.21e5  49216. 1.97e5 61.4752%     
#>  5 Rust                2021 Febru… 1.18e5 -24375. 2.24e5 52.4988%     
#>  6 Team Fortress 2     2021 Febru… 1.01e5  18083. 1.34e5 75.7603%     
#>  7 Grand Theft Auto V  2021 Febru… 9.06e4 -10603. 1.46e5 61.9017%     
#>  8 Tom Clancy's Rain…  2021 Febru… 7.24e4  -5335. 1.13e5 63.8645%     
#>  9 Rocket League       2021 Febru… 5.37e4  -5726. 1.03e5 51.9419%     
#> 10 Path of Exile       2021 Febru… 4.69e4   -766. 9.05e4 51.8229%     
#> # … with 83,621 more rows

Wrangle

I only want data from the mainline Borderlands titles for my plot, so let’s get those.

# Filter to mainline Borderlands titles available in the data. The first game
# is not available in the dataset so filtering based on the title and digit
# works fine here.
borderlands <- games %>%
  filter(str_detect(gamename, "Borderlands[[:space:]][[:digit:]]"))

borderlands

#> # A tibble: 114 x 7
#>    gamename       year month      avg    gain  peak avg_peak_perc
#>    <chr>         <dbl> <chr>    <dbl>   <dbl> <dbl> <chr>        
#>  1 Borderlands 3  2021 February 8338.   662.  15911 52.4057%     
#>  2 Borderlands 2  2021 February 4365.   795.   7971 54.7646%     
#>  3 Borderlands 3  2021 January  7677.  -864.  16501 46.5229%     
#>  4 Borderlands 2  2021 January  3570.     4.3  6809 52.4331%     
#>  5 Borderlands 3  2020 December 8540.  2812.  16912 50.4995%     
#>  6 Borderlands 2  2020 December 3566.   816.   6227 57.2647%     
#>  7 Borderlands 3  2020 November 5729.   133.  15189 37.7155%     
#>  8 Borderlands 2  2020 November 2750.   285.   5798 47.4219%     
#>  9 Borderlands 3  2020 October  5595. -3110.  10199 54.8596%     
#> 10 Borderlands 2  2020 October  2465.  -632.   4172 59.0731%     
#> # … with 104 more rows
…
borderlands

#> # A tibble: 24 x 9
#>    gamename date                 year month since_release    avg
#>    <chr>    <dttm>              <dbl> <chr>         <int>  <dbl>
#>  1 Borderl… 2021-02-01 00:00:00  2021 Febr…            11  8338.
#>  2 Borderl… 2021-01-01 00:00:00  2021 Janu…            10  7677.
#>  3 Borderl… 2020-12-01 00:00:00  2020 Dece…             9  8540.
#>  4 Borderl… 2020-11-01 00:00:00  2020 Nove…             8  5729.
#>  5 Borderl… 2020-10-01 00:00:00  2020 Octo…             7  5595.
#>  6 Borderl… 2020-09-01 00:00:00  2020 Sept…             6  8705.
#>  7 Borderl… 2020-08-01 00:00:00  2020 Augu…             5  8874.
#>  8 Borderl… 2020-07-01 00:00:00  2020 July              4  8786.
#>  9 Borderl… 2020-06-01 00:00:00  2020 June              3  7134.
#> 10 Borderl… 2020-05-01 00:00:00  2020 May               2 14973.
#> # … with 14 more rows, and 3 more variables: gain <dbl>, peak <dbl>,
#> #   avg_peak_perc <chr>
…
