Tidy Tales - We are, we are, on the cruise! We R!
…
cran_gh_repos

#> # A tibble: 9,115 × 3
#>    package        owner         repo          
#>    <chr>          <chr>         <chr>         
#>  1 AATtools       Spiritspeak   AATtools      
#>  2 abbreviate     sigbertklinke abbreviate    
#>  3 abclass        wenjie2wang   abclass       
#>  4 abctools       dennisprangle abctools      
#>  5 abdiv          kylebittinger abdiv         
#>  6 abess          abess-team    abess         
#>  7 abjutils       abjur         abjutils      
#>  8 ABM            junlingm      ABM           
#>  9 abstr          a-b-street    abstr         
#> 10 AcademicThemes hwarden162    AcademicThemes
#> # … with 9,105 more rows
…
query_groups

#> $group_1
#> # A tibble: 4,000 × 3
#>    package        owner         repo          
#>    <chr>          <chr>         <chr>         
#>  1 AATtools       Spiritspeak   AATtools      
#>  2 abbreviate     sigbertklinke abbreviate    
#>  3 abclass        wenjie2wang   abclass       
#>  4 abctools       dennisprangle abctools      
#>  5 abdiv          kylebittinger abdiv         
#>  6 abess          abess-team    abess         
#>  7 abjutils       abjur         abjutils      
#>  8 ABM            junlingm      ABM           
#>  9 abstr          a-b-street    abstr         
#> 10 AcademicThemes hwarden162    AcademicThemes
#> # … with 3,990 more rows
#> 
#> $group_2
#> # A tibble: 4,000 × 3
#>    package         owner          repo           
#>    <chr>           <chr>          <chr>          
#>  1 letsR           macroecology   letsR          
#>  2 levitate        lewinfox       levitate       
#>  3 LexFindR        maglab-uconn   LexFindR       
#>  4 lexicon         trinker        lexicon        
#>  5 LexisNexisTools JBGruber       LexisNexisTools
#>  6 LexisPlotR      ottlngr        LexisPlotR     
#>  7 lexRankr        AdamSpannbauer lexRankr       
#>  8 LFApp           fpaskali       LFApp          
#>  9 lfc             erhard-lab     lfc            
#> 10 lfda            terrytangyuan  lfda           
#> # … with 3,990 more rows
#> 
#> $group_3
#> # A tibble: 1,115 × 3
#>    package      owner         repo        
#>    <chr>        <chr>         <chr>       
#>  1 stringb      petermeissner stringb     
#>  2 stringdist   markvanderloo stringdist  
#>  3 stringfish   traversc      stringfish  
#>  4 stringi      gagolews      stringi     
#>  5 stringr      tidyverse     stringr     
#>  6 stringstatic rossellhayes  stringstatic
#>  7 stringx      gagolews      stringx     
#>  8 strip        paulponcet    strip       
#>  9 striprtf     kota7         striprtf    
#> 10 stRoke       agdamsbo      stRoke      
#> # … with 1,105 more rows
…
      # Once a group is done, rest for an hour to avoid the rate limit.
      Sys.sleep(3600)
      
      query_result
    }
  )

contributors_all

#> # A tibble: 35,939 × 3
#>    package    login          n_commits
#>    <chr>      <chr>              <int>
#>  1 AATtools   Spiritspeak           76
#>  2 abbreviate sigbertklinke          4
#>  3 abclass    wenjie2wang          297
#>  4 abctools   dennisprangle         50
#>  5 abdiv      kylebittinger        136
#>  6 abess      Mamba413            1113
#>  7 abess      oooo26               816
#>  8 abess      Jiang-Kangkang       312
#>  9 abess      zaza0209             249
#> 10 abess      bbayukari             97
#> # … with 35,929 more rows
…
contributors_unique <- tibble(login = unique(contributors_all$login))

contributors_unique

#> # A tibble: 15,318 × 1
#>    login         
#>    <chr>         
#>  1 Spiritspeak   
#>  2 sigbertklinke 
#>  3 wenjie2wang   
#>  4 dennisprangle 
#>  5 kylebittinger 
#>  6 Mamba413      
#>  7 oooo26        
#>  8 Jiang-Kangkang
#>  9 zaza0209      
#> 10 bbayukari     
#> # … with 15,308 more rows
…
query_groups <- contributors_unique |>
  mutate(
    query_group = paste0(
      "group_", rep(1:n_groups, each = n_per_group)[1:nrow(contributors_unique)]
    )
  ) |>
  group_by(query_group) |>
  nest() |>
  deframe()

query_groups

#> $group_1
#> # A tibble: 4,000 × 1
#>    login         
#>    <chr>         
#>  1 Spiritspeak   
#>  2 sigbertklinke 
#>  3 wenjie2wang   
#>  4 dennisprangle 
#>  5 kylebittinger 
#>  6 Mamba413      
#>  7 oooo26        
#>  8 Jiang-Kangkang
#>  9 zaza0209      
#> 10 bbayukari     
#> # … with 3,990 more rows
#> 
#> $group_2
#> # A tibble: 4,000 × 1
#>    login      
#>    <chr>      
#>  1 eipi10     
#>  2 fh-kpikhart
#>  3 agable-vt  
#>  4 hs3180     
#>  5 klmedeiros 
#>  6 mnfn       
#>  7 shea-parkes
#>  8 shearerp   
#>  9 teramonagi 
#> 10 peekxc     
#> # … with 3,990 more rows
#> 
#> $group_3
#> # A tibble: 4,000 × 1
#>    login        
#>    <chr>        
#>  1 tlamadon     
#>  2 NickSalkowski
#>  3 duncandoo    
#>  4 chroetz      
#>  5 jtoloe       
#>  6 kindlychung  
#>  7 mhofert      
#>  8 nachocab     
#>  9 sietse       
#> 10 tibastral    
#> # … with 3,990 more rows
#> 
#> $group_4
#> # A tibble: 3,318 × 1
#>    login        
#>    <chr>        
#>  1 liamblake    
#>  2 lgaborini    
#>  3 perluna      
#>  4 mikemc       
#>  5 VictorSuarezL
#>  6 asmae-toumi  
#>  7 fxdlmatt     
#>  8 leondap      
#>  9 LurN         
#> 10 Rhan43       
#> # … with 3,308 more rows
…
      # Once a group is done, rest for an hour to avoid the rate limit.
      # Since this is our last query, there's a redundant hour of waiting
      # after the last query group is finished. This is easy to fix, but I'm
      # only running this code once *ever*, so it's even easier not to.
      Sys.sleep(3600)
      
      query_result
    }
  )

contributors_tidy

#> # A tibble: 15,318 × 2
#>    name           login         
#>    <chr>          <chr>         
#>  1 Spiritspeak    Spiritspeak   
#>  2 Sigbert Klinke sigbertklinke 
#>  3 Wenjie Wang    wenjie2wang   
#>  4 Dennis Prangle dennisprangle 
#>  5 Kyle Bittinger kylebittinger 
#>  6 Jin Zhu        Mamba413      
#>  7 Junhao Huang   oooo26        
#>  8 Jiang-Kangkang Jiang-Kangkang
#>  9 Liyuan Hu      zaza0209      
#> 10 bbayukari      bbayukari     
#> # … with 15,308 more rows

Tidying GitHub query results

With the names associated with each login in contributors_tidy, I can add those to contributors_all.

contributors_all <- contributors_all |>
  left_join(contributors_tidy) |>
  relocate(name, .before = login) |>
  # Make all names title case to improve the success rates of joining names
  # with `cran_authors` in the next code chunk.
  mutate(name = str_to_title(name))

contributors_all

#> # A tibble: 35,532 × 4
#>    package    name           login          n_commits
#>    <chr>      <chr>          <chr>              <int>
#>  1 AATtools   Spiritspeak    Spiritspeak           76
#>  2 abbreviate Sigbert Klinke sigbertklinke          4
#>  3 abclass    Wenjie Wang    wenjie2wang          297
#>  4 abctools   Dennis Prangle dennisprangle         50
#>  5 abdiv      Kyle Bittinger kylebittinger        136
#>  6 abess      Jin Zhu        Mamba413            1113
#>  7 abess      Junhao Huang   oooo26               816
#>  8 abess      Jiang-Kangkang Jiang-Kangkang       312
#>  9 abess      Liyuan Hu      zaza0209             249
#> 10 abess      Bbayukari      bbayukari             97
#> # … with 35,522 more rows
…
contributors_all <- contributors_authors |>
  bind_rows(contributors_contributors) |>
  arrange(package) |>
  # If a package has a single contributor it's reasonable to assume they have
  # authorship of the package. This fixes some misses in the joining method
  # where people use different names on GitHub and in the `DESCRIPTION`.
  group_by(package) |>
  mutate(package_author = if (n() == 1) TRUE else package_author) |>
  ungroup()

contributors_all

#> # A tibble: 35,532 × 5
#>    package  name                login              n_commits package_author
#>    <chr>    <chr>               <chr>                  <int> <lgl>         
#>  1 AATtools Spiritspeak         Spiritspeak               76 TRUE          
#>  2 ABM      Junling Ma          junlingm                  89 TRUE          
#>  3 ACDC     Bjorn Tore Kopperud kopperud                 115 TRUE          
#>  4 ACDC     Sebastian Hohna     hoehna                    27 TRUE          
#>  5 ACDC     Andy Magee          afmagee                   31 FALSE         
#>  6 ACDC     Jeremy Andreoletti  Jeremy-Andreoletti         8 FALSE         
#>  7 ACEP     Agustin Nieto       agusnieto77              218 TRUE          
#>  8 ACEP     Sismos              HDyCSC                     1 FALSE         
#>  9 ACNE     Henrik Bengtsson    HenrikBengtsson           55 TRUE          
#> 10 ACNE     Mortizest           mortizest                  5 FALSE         
#> # … with 35,522 more rows
Going full circle, we can then update contributors_tidy to include some summary statistics for each contributor, including the number of packages they have contributed to that they have authorship on.

contributors_tidy <- contributors_all |>
  group_by(name, login) |>
  summarise(
    n_packages = n(),
    n_commits = sum(n_commits, na.rm = TRUE),
    n_authorships = sum(package_author, na.rm = TRUE)
  ) |>
  ungroup() |>
  arrange(desc(n_packages), desc(n_commits))

contributors_tidy

#> # A tibble: 15,318 × 5
#>    name              login          n_packages n_commits n_authorships
#>    <chr>             <chr>               <int>     <int>         <int>
#>  1 Hadley Wickham    hadley                261     31758           108
#>  2 Jeroen Ooms       jeroen                243     12425            81
#>  3 Maelle Salmon     maelle                194      2432            32
#>  4 Jim Hester        jimhester             179     10756            38
#>  5 Dirk Eddelbuettel eddelbuettel          170     12748            58
#>  6 Kirill Muller     krlmlr                167     25380            49
#>  7 Davis Vaughan     DavisVaughan          123      7096            27
#>  8 Michael Chirico   MichaelChirico        122      1252             9
#>  9 Romain Francois   romainfrancois        116      7202            21
#> 10 Gabor Csardi      gaborcsardi           113     14760            72
#> # … with 15,308 more rows
We can also summarize contributors_all to get package-level summary statistics.

packages_tidy <- contributors_all |>
  group_by(package) |>
  summarise(
    n_contributors = n(),
    n_authors = sum(package_author, na.rm = TRUE),
    n_commits = sum(n_commits, na.rm = TRUE)
  ) |>
  ungroup() |>
  arrange(desc(n_contributors), desc(n_commits))

packages_tidy

#> # A tibble: 8,972 × 4
#>    package  n_contributors n_authors n_commits
#>    <chr>             <int>     <int>     <int>
#>  1 mlflow              456         3      3794
#>  2 xgboost             412         7      5998
#>  3 arrow               356        10     12493
#>  4 fs                  315         3      4521
#>  5 ggplot2             284         9      4993
#>  6 lightgbm            272         6      3241
#>  7 dplyr               254         5      7592
#>  8 mlpack              231        80     23813
#>  9 duckdb              207         1     24937
#> 10 h2o                 162        17     23155
#> # … with 8,962 more rows
…
contributors_tidy: A data frame with summary statistics for each contributor.

packages_tidy: A data frame with summary statistics for each package.

packages_graph: A graph of packages that have contributors in common.

contributors_graph: A graph of people that have contributed to the same packages.

Like in the previous post, it’s worth reiterating that there is some degree of measurement error here. It’s going to vary by package and person; some of it can be attributable to my code not dealing with certain edge cases well, but other errors are just inherent to doing this analysis in an programmatic way.

For example, if we look at which individuals haven’t authored an R package on CRAN, we immediately see three obvious false negatives with Jenny, Daniel, and Will, who are all prolific authors who have most certainly published on CRAN, and whose packages I use regularly. The reason they all have zero authorships is because they use different names on GitHub and in the DESCRIPTION of the R packages they’re authors on.

filter(contributors_tidy, n_authorships == 0)

#> # A tibble: 9,485 × 5
#>    name                   login         n_packages n_commits n_authorships
#>    <chr>                  <chr>              <int>     <int>         <int>
#>  1 Jennifer (Jenny) Bryan jennybc               87      4877             0
#>  2 Salim B                salim-b               65       136             0
#>  3 Daniel                 strengejacke          28     16006             0
#>  4 The Gitter Badger      gitter-badger         22        23             0
#>  5 Eitsupi                eitsupi               19       225             0
#>  6 Max Held               maxheld83             19       159             0
#>  7 Steven (Siwei) Ye      stevenysw             19        65             0
#>  8 Bgoodri                bgoodri               18      2417             0
#>  9 Will Landau            wlandau-lilly         16      3341             0
#> 10 Jonathan               jmcphers              16       917             0
#> # … with 9,475 more rows
…
